{
  "images" : [
    {
      "idiom" : "universal",
      "scale" : "1x"
    },
    {
      "idiom" : "universal",
      "scale" : "2x",
      "filename" : "my_settings_box.png"
    },
    {
      "idiom" : "universal",
      "scale" : "3x"
    },
    {
      "idiom" : "ipad",
      "scale" : "1x",
      "filename" : "my_settings_box_low.png"
    },
    {
      "idiom" : "ipad",
      "scale" : "2x",
      "filename" : "my_settings_box-1.png"
    }
  ],
  "info" : {
    "version" : 1,
    "author" : "xcode"
  }
}